{
	"href" : "https://api.spotify.com/v1/users/1162685727/playlists?offset=180&limit=40",
	"items" : [ {
	  "collaborative" : false,
	  "description" : "",
	  "external_urls" : {
		"spotify" : "https://open.spotify.com/playlist/1KxjX3usbEEL8nlgxG1Lku"
	  },
	  "href" : "https://api.spotify.com/v1/playlists/1KxjX3usbEEL8nlgxG1Lku",
	  "id" : "1KxjX3usbEEL8nlgxG1Lku",
	  "images" : [ {
		"height" : 640,
		"url" : "https://mosaic.scdn.co/640/6b2b8ab1bc6f198b8650a99b8f8c51be25ca1b4eab67616d0000b2730dbe3e9b1f3436574be16bc9ab67616d0000b27335a38c63378176b9ae177797ab67616d0000b273c3860d1b87e78a68953f76f6",
		"width" : 640
	  }, {
		"height" : 300,
		"url" : "https://mosaic.scdn.co/300/6b2b8ab1bc6f198b8650a99b8f8c51be25ca1b4eab67616d0000b2730dbe3e9b1f3436574be16bc9ab67616d0000b27335a38c63378176b9ae177797ab67616d0000b273c3860d1b87e78a68953f76f6",
		"width" : 300
	  }, {
		"height" : 60,
		"url" : "https://mosaic.scdn.co/60/6b2b8ab1bc6f198b8650a99b8f8c51be25ca1b4eab67616d0000b2730dbe3e9b1f3436574be16bc9ab67616d0000b27335a38c63378176b9ae177797ab67616d0000b273c3860d1b87e78a68953f76f6",
		"width" : 60
	  } ],
	  "name" : "October Top 5 2005",
	  "owner" : {
		"display_name" : "Grant Spencer Meek",
		"external_urls" : {
		  "spotify" : "https://open.spotify.com/user/1162685727"
		},
		"href" : "https://api.spotify.com/v1/users/1162685727",
		"id" : "1162685727",
		"type" : "user",
		"uri" : "spotify:user:1162685727"
	  },
	  "primary_color" : null,
	  "public" : true,
	  "snapshot_id" : "MTQsOTkxNWZiMDk2MzBlNjRkYjI4NmVlZDhkNTk2N2M3MGJhODRhMmNhNg==",
	  "tracks" : {
		"href" : "https://api.spotify.com/v1/playlists/1KxjX3usbEEL8nlgxG1Lku/tracks",
		"total" : 5
	  },
	  "type" : "playlist",
	  "uri" : "spotify:playlist:1KxjX3usbEEL8nlgxG1Lku"
	}, {
	  "collaborative" : false,
	  "description" : "",
	  "external_urls" : {
		"spotify" : "https://open.spotify.com/playlist/0Hxb1Cobh1MyC1DtvxYbUM"
	  },
	  "href" : "https://api.spotify.com/v1/playlists/0Hxb1Cobh1MyC1DtvxYbUM",
	  "id" : "0Hxb1Cobh1MyC1DtvxYbUM",
	  "images" : [ {
		"height" : 640,
		"url" : "https://mosaic.scdn.co/640/a0b407073181a25e8d121aceb4354d233a36018eab67616d0000b273ac6c48fe008accd4cad0d11aab67616d0000b273f2838c5bd1a736f5917bff62ab67616d0000b273fad5d9e78941effaf4232716",
		"width" : 640
	  }, {
		"height" : 300,
		"url" : "https://mosaic.scdn.co/300/a0b407073181a25e8d121aceb4354d233a36018eab67616d0000b273ac6c48fe008accd4cad0d11aab67616d0000b273f2838c5bd1a736f5917bff62ab67616d0000b273fad5d9e78941effaf4232716",
		"width" : 300
	  }, {
		"height" : 60,
		"url" : "https://mosaic.scdn.co/60/a0b407073181a25e8d121aceb4354d233a36018eab67616d0000b273ac6c48fe008accd4cad0d11aab67616d0000b273f2838c5bd1a736f5917bff62ab67616d0000b273fad5d9e78941effaf4232716",
		"width" : 60
	  } ],
	  "name" : "November Top 5 2005",
	  "owner" : {
		"display_name" : "Grant Spencer Meek",
		"external_urls" : {
		  "spotify" : "https://open.spotify.com/user/1162685727"
		},
		"href" : "https://api.spotify.com/v1/users/1162685727",
		"id" : "1162685727",
		"type" : "user",
		"uri" : "spotify:user:1162685727"
	  },
	  "primary_color" : null,
	  "public" : true,
	  "snapshot_id" : "MTUsZWJhYjU2OGE3MzU4YjA5MDVkOGEzOGQxNzMzMDExNzMzNDJkNzdlZQ==",
	  "tracks" : {
		"href" : "https://api.spotify.com/v1/playlists/0Hxb1Cobh1MyC1DtvxYbUM/tracks",
		"total" : 5
	  },
	  "type" : "playlist",
	  "uri" : "spotify:playlist:0Hxb1Cobh1MyC1DtvxYbUM"
	}, {
	  "collaborative" : false,
	  "description" : "",
	  "external_urls" : {
		"spotify" : "https://open.spotify.com/playlist/0gR777pVDBueVnRTbjx0A8"
	  },
	  "href" : "https://api.spotify.com/v1/playlists/0gR777pVDBueVnRTbjx0A8",
	  "id" : "0gR777pVDBueVnRTbjx0A8",
	  "images" : [ {
		"height" : 640,
		"url" : "https://i.scdn.co/image/104370fc7dfdc289c86338e51934ea32c8855764",
		"width" : 640
	  } ],
	  "name" : "December Top 5 2005",
	  "owner" : {
		"display_name" : "Grant Spencer Meek",
		"external_urls" : {
		  "spotify" : "https://open.spotify.com/user/1162685727"
		},
		"href" : "https://api.spotify.com/v1/users/1162685727",
		"id" : "1162685727",
		"type" : "user",
		"uri" : "spotify:user:1162685727"
	  },
	  "primary_color" : null,
	  "public" : true,
	  "snapshot_id" : "MTAsNTM1OGI5MjM3MWQ5ZjlhOGNlMDExMGJiMTYyNTExMTEzODYzNTYyNA==",
	  "tracks" : {
		"href" : "https://api.spotify.com/v1/playlists/0gR777pVDBueVnRTbjx0A8/tracks",
		"total" : 5
	  },
	  "type" : "playlist",
	  "uri" : "spotify:playlist:0gR777pVDBueVnRTbjx0A8"
	}, {
	  "collaborative" : false,
	  "description" : "",
	  "external_urls" : {
		"spotify" : "https://open.spotify.com/playlist/39DWQ6zvXX7pavBM2Q8hgX"
	  },
	  "href" : "https://api.spotify.com/v1/playlists/39DWQ6zvXX7pavBM2Q8hgX",
	  "id" : "39DWQ6zvXX7pavBM2Q8hgX",
	  "images" : [ {
		"height" : 640,
		"url" : "https://mosaic.scdn.co/640/5b16fcd1b589f67429789bff90bc3fafdbe3b666ab67616d0000b2735a4920d9ca329cc37e8c2941ab67616d0000b273ba7fe7dd76cd4307e57dd75fab67616d0000b273e8fc95b39b77b5b1bf0369da",
		"width" : 640
	  }, {
		"height" : 300,
		"url" : "https://mosaic.scdn.co/300/5b16fcd1b589f67429789bff90bc3fafdbe3b666ab67616d0000b2735a4920d9ca329cc37e8c2941ab67616d0000b273ba7fe7dd76cd4307e57dd75fab67616d0000b273e8fc95b39b77b5b1bf0369da",
		"width" : 300
	  }, {
		"height" : 60,
		"url" : "https://mosaic.scdn.co/60/5b16fcd1b589f67429789bff90bc3fafdbe3b666ab67616d0000b2735a4920d9ca329cc37e8c2941ab67616d0000b273ba7fe7dd76cd4307e57dd75fab67616d0000b273e8fc95b39b77b5b1bf0369da",
		"width" : 60
	  } ],
	  "name" : "January Top 5 2004",
	  "owner" : {
		"display_name" : "Grant Spencer Meek",
		"external_urls" : {
		  "spotify" : "https://open.spotify.com/user/1162685727"
		},
		"href" : "https://api.spotify.com/v1/users/1162685727",
		"id" : "1162685727",
		"type" : "user",
		"uri" : "spotify:user:1162685727"
	  },
	  "primary_color" : null,
	  "public" : true,
	  "snapshot_id" : "MTIsOGY1YjZjZDJhN2M3MDA0MGQ5MTg3MmQ3YTM3YmIwMjIwYjBiZTJjNg==",
	  "tracks" : {
		"href" : "https://api.spotify.com/v1/playlists/39DWQ6zvXX7pavBM2Q8hgX/tracks",
		"total" : 5
	  },
	  "type" : "playlist",
	  "uri" : "spotify:playlist:39DWQ6zvXX7pavBM2Q8hgX"
	}, {
	  "collaborative" : false,
	  "description" : "",
	  "external_urls" : {
		"spotify" : "https://open.spotify.com/playlist/1bPANcEPVaK5KrzDyymic7"
	  },
	  "href" : "https://api.spotify.com/v1/playlists/1bPANcEPVaK5KrzDyymic7",
	  "id" : "1bPANcEPVaK5KrzDyymic7",
	  "images" : [ {
		"height" : 640,
		"url" : "https://mosaic.scdn.co/640/ab67616d0000b2735155b8344b7747e9708bd16dab67616d0000b2736a153765ecfa6bccbd3edf1eab67616d0000b27373c9e64f55b4a724e8c2f01fab67616d0000b273786b44c75ebf915866523f5b",
		"width" : 640
	  }, {
		"height" : 300,
		"url" : "https://mosaic.scdn.co/300/ab67616d0000b2735155b8344b7747e9708bd16dab67616d0000b2736a153765ecfa6bccbd3edf1eab67616d0000b27373c9e64f55b4a724e8c2f01fab67616d0000b273786b44c75ebf915866523f5b",
		"width" : 300
	  }, {
		"height" : 60,
		"url" : "https://mosaic.scdn.co/60/ab67616d0000b2735155b8344b7747e9708bd16dab67616d0000b2736a153765ecfa6bccbd3edf1eab67616d0000b27373c9e64f55b4a724e8c2f01fab67616d0000b273786b44c75ebf915866523f5b",
		"width" : 60
	  } ],
	  "name" : "February Top 5 2004",
	  "owner" : {
		"display_name" : "Grant Spencer Meek",
		"external_urls" : {
		  "spotify" : "https://open.spotify.com/user/1162685727"
		},
		"href" : "https://api.spotify.com/v1/users/1162685727",
		"id" : "1162685727",
		"type" : "user",
		"uri" : "spotify:user:1162685727"
	  },
	  "primary_color" : null,
	  "public" : true,
	  "snapshot_id" : "MTQsYzA2ZTcwYzViODU0Yjc4MjllMTc1YjZkY2RjNWMxNGVkMDUxZTJlMQ==",
	  "tracks" : {
		"href" : "https://api.spotify.com/v1/playlists/1bPANcEPVaK5KrzDyymic7/tracks",
		"total" : 5
	  },
	  "type" : "playlist",
	  "uri" : "spotify:playlist:1bPANcEPVaK5KrzDyymic7"
	}, {
	  "collaborative" : false,
	  "description" : "",
	  "external_urls" : {
		"spotify" : "https://open.spotify.com/playlist/75kDv8r24viTPtl3QE6hqj"
	  },
	  "href" : "https://api.spotify.com/v1/playlists/75kDv8r24viTPtl3QE6hqj",
	  "id" : "75kDv8r24viTPtl3QE6hqj",
	  "images" : [ {
		"height" : 640,
		"url" : "https://mosaic.scdn.co/640/ab67616d0000b273c01d5670524c8e9f9fc3d065ab67616d0000b273e8fc95b39b77b5b1bf0369daab67616d0000b273ed3953f8af1f764a146b7583ab67616d0000b273f5b54c02b25abfe416e8a6ec",
		"width" : 640
	  }, {
		"height" : 300,
		"url" : "https://mosaic.scdn.co/300/ab67616d0000b273c01d5670524c8e9f9fc3d065ab67616d0000b273e8fc95b39b77b5b1bf0369daab67616d0000b273ed3953f8af1f764a146b7583ab67616d0000b273f5b54c02b25abfe416e8a6ec",
		"width" : 300
	  }, {
		"height" : 60,
		"url" : "https://mosaic.scdn.co/60/ab67616d0000b273c01d5670524c8e9f9fc3d065ab67616d0000b273e8fc95b39b77b5b1bf0369daab67616d0000b273ed3953f8af1f764a146b7583ab67616d0000b273f5b54c02b25abfe416e8a6ec",
		"width" : 60
	  } ],
	  "name" : "March Top 5 2004",
	  "owner" : {
		"display_name" : "Grant Spencer Meek",
		"external_urls" : {
		  "spotify" : "https://open.spotify.com/user/1162685727"
		},
		"href" : "https://api.spotify.com/v1/users/1162685727",
		"id" : "1162685727",
		"type" : "user",
		"uri" : "spotify:user:1162685727"
	  },
	  "primary_color" : null,
	  "public" : true,
	  "snapshot_id" : "MTYsN2Y5MTIwOGQ4YWFlMzg4ZjQ5ZDhkMDI1YTNjMmM4MTc1NGMzNWIyZA==",
	  "tracks" : {
		"href" : "https://api.spotify.com/v1/playlists/75kDv8r24viTPtl3QE6hqj/tracks",
		"total" : 5
	  },
	  "type" : "playlist",
	  "uri" : "spotify:playlist:75kDv8r24viTPtl3QE6hqj"
	}, {
	  "collaborative" : false,
	  "description" : "",
	  "external_urls" : {
		"spotify" : "https://open.spotify.com/playlist/6kVHmy64pKE1pElYDjw9ko"
	  },
	  "href" : "https://api.spotify.com/v1/playlists/6kVHmy64pKE1pElYDjw9ko",
	  "id" : "6kVHmy64pKE1pElYDjw9ko",
	  "images" : [ {
		"height" : 640,
		"url" : "https://mosaic.scdn.co/640/ab67616d0000b2733a960616a093bf2742404317ab67616d0000b273467c4bc5d8d8fcc14260be23ab67616d0000b273d277f4ee17405d8766964921ab67616d0000b273fd7121d725a0e4aafd4fe785",
		"width" : 640
	  }, {
		"height" : 300,
		"url" : "https://mosaic.scdn.co/300/ab67616d0000b2733a960616a093bf2742404317ab67616d0000b273467c4bc5d8d8fcc14260be23ab67616d0000b273d277f4ee17405d8766964921ab67616d0000b273fd7121d725a0e4aafd4fe785",
		"width" : 300
	  }, {
		"height" : 60,
		"url" : "https://mosaic.scdn.co/60/ab67616d0000b2733a960616a093bf2742404317ab67616d0000b273467c4bc5d8d8fcc14260be23ab67616d0000b273d277f4ee17405d8766964921ab67616d0000b273fd7121d725a0e4aafd4fe785",
		"width" : 60
	  } ],
	  "name" : "April Top 5 2004",
	  "owner" : {
		"display_name" : "Grant Spencer Meek",
		"external_urls" : {
		  "spotify" : "https://open.spotify.com/user/1162685727"
		},
		"href" : "https://api.spotify.com/v1/users/1162685727",
		"id" : "1162685727",
		"type" : "user",
		"uri" : "spotify:user:1162685727"
	  },
	  "primary_color" : null,
	  "public" : true,
	  "snapshot_id" : "MTgsYjdhMjYxYTAzOGY4MDU1OWM0Mzc5OWZhMmM2ZmJmMjJiMjU0Yjk2MA==",
	  "tracks" : {
		"href" : "https://api.spotify.com/v1/playlists/6kVHmy64pKE1pElYDjw9ko/tracks",
		"total" : 5
	  },
	  "type" : "playlist",
	  "uri" : "spotify:playlist:6kVHmy64pKE1pElYDjw9ko"
	}, {
	  "collaborative" : false,
	  "description" : "",
	  "external_urls" : {
		"spotify" : "https://open.spotify.com/playlist/4PlILpGauGrECX52b78Qkw"
	  },
	  "href" : "https://api.spotify.com/v1/playlists/4PlILpGauGrECX52b78Qkw",
	  "id" : "4PlILpGauGrECX52b78Qkw",
	  "images" : [ {
		"height" : 640,
		"url" : "https://mosaic.scdn.co/640/1ef3f6a1d213a8a2d2325a8b37d7fd753097830e51637d2240ce2086aa0132d27bad69da1827ed645e1962e0cb2147eeb6b0080fe267329eb084b21dab67616d0000b27334733f87148c2fbe0176abdb",
		"width" : 640
	  }, {
		"height" : 300,
		"url" : "https://mosaic.scdn.co/300/1ef3f6a1d213a8a2d2325a8b37d7fd753097830e51637d2240ce2086aa0132d27bad69da1827ed645e1962e0cb2147eeb6b0080fe267329eb084b21dab67616d0000b27334733f87148c2fbe0176abdb",
		"width" : 300
	  }, {
		"height" : 60,
		"url" : "https://mosaic.scdn.co/60/1ef3f6a1d213a8a2d2325a8b37d7fd753097830e51637d2240ce2086aa0132d27bad69da1827ed645e1962e0cb2147eeb6b0080fe267329eb084b21dab67616d0000b27334733f87148c2fbe0176abdb",
		"width" : 60
	  } ],
	  "name" : "May Top 5 2004",
	  "owner" : {
		"display_name" : "Grant Spencer Meek",
		"external_urls" : {
		  "spotify" : "https://open.spotify.com/user/1162685727"
		},
		"href" : "https://api.spotify.com/v1/users/1162685727",
		"id" : "1162685727",
		"type" : "user",
		"uri" : "spotify:user:1162685727"
	  },
	  "primary_color" : null,
	  "public" : true,
	  "snapshot_id" : "MTksYjk0ZGVlNGEyOTdjMGYxNDkxNjM2Yzk3Yzc1MmE4ZGVhMmM1ZmM5Ng==",
	  "tracks" : {
		"href" : "https://api.spotify.com/v1/playlists/4PlILpGauGrECX52b78Qkw/tracks",
		"total" : 5
	  },
	  "type" : "playlist",
	  "uri" : "spotify:playlist:4PlILpGauGrECX52b78Qkw"
	}, {
	  "collaborative" : false,
	  "description" : "",
	  "external_urls" : {
		"spotify" : "https://open.spotify.com/playlist/0fGA74tos4lqPxPMtulGTM"
	  },
	  "href" : "https://api.spotify.com/v1/playlists/0fGA74tos4lqPxPMtulGTM",
	  "id" : "0fGA74tos4lqPxPMtulGTM",
	  "images" : [ {
		"height" : 640,
		"url" : "https://mosaic.scdn.co/640/863edcb3643ec66720d45560d98d54b10b079251ab67616d0000b2736d1d8867370e0579e5865706ab67616d0000b273b1bc4f3748270caddfe8b04df63cbad7a10b6b99252a105889dcb36847193fa6",
		"width" : 640
	  }, {
		"height" : 300,
		"url" : "https://mosaic.scdn.co/300/863edcb3643ec66720d45560d98d54b10b079251ab67616d0000b2736d1d8867370e0579e5865706ab67616d0000b273b1bc4f3748270caddfe8b04df63cbad7a10b6b99252a105889dcb36847193fa6",
		"width" : 300
	  }, {
		"height" : 60,
		"url" : "https://mosaic.scdn.co/60/863edcb3643ec66720d45560d98d54b10b079251ab67616d0000b2736d1d8867370e0579e5865706ab67616d0000b273b1bc4f3748270caddfe8b04df63cbad7a10b6b99252a105889dcb36847193fa6",
		"width" : 60
	  } ],
	  "name" : "June Top 5 2004",
	  "owner" : {
		"display_name" : "Grant Spencer Meek",
		"external_urls" : {
		  "spotify" : "https://open.spotify.com/user/1162685727"
		},
		"href" : "https://api.spotify.com/v1/users/1162685727",
		"id" : "1162685727",
		"type" : "user",
		"uri" : "spotify:user:1162685727"
	  },
	  "primary_color" : null,
	  "public" : true,
	  "snapshot_id" : "MTYsNTcxNGQ0NWEzZGM3NGVkMWEwMjkwMWQ5YTg2YzZlNDQwOWUwZTVlZA==",
	  "tracks" : {
		"href" : "https://api.spotify.com/v1/playlists/0fGA74tos4lqPxPMtulGTM/tracks",
		"total" : 5
	  },
	  "type" : "playlist",
	  "uri" : "spotify:playlist:0fGA74tos4lqPxPMtulGTM"
	}, {
	  "collaborative" : false,
	  "description" : "",
	  "external_urls" : {
		"spotify" : "https://open.spotify.com/playlist/4i5BSEnpCPoZpi8IYJVEqz"
	  },
	  "href" : "https://api.spotify.com/v1/playlists/4i5BSEnpCPoZpi8IYJVEqz",
	  "id" : "4i5BSEnpCPoZpi8IYJVEqz",
	  "images" : [ {
		"height" : 640,
		"url" : "https://mosaic.scdn.co/640/78b9969d1f84ee61f87bc71ad1f179f1235edba7ab67616d0000b2736a6387ab37f64034cdc7b367ab67616d0000b2737d8dca2685569e7a1a8c0ab7ab67616d0000b27398e08f603553915a041b6937",
		"width" : 640
	  }, {
		"height" : 300,
		"url" : "https://mosaic.scdn.co/300/78b9969d1f84ee61f87bc71ad1f179f1235edba7ab67616d0000b2736a6387ab37f64034cdc7b367ab67616d0000b2737d8dca2685569e7a1a8c0ab7ab67616d0000b27398e08f603553915a041b6937",
		"width" : 300
	  }, {
		"height" : 60,
		"url" : "https://mosaic.scdn.co/60/78b9969d1f84ee61f87bc71ad1f179f1235edba7ab67616d0000b2736a6387ab37f64034cdc7b367ab67616d0000b2737d8dca2685569e7a1a8c0ab7ab67616d0000b27398e08f603553915a041b6937",
		"width" : 60
	  } ],
	  "name" : "July Top 5 2004",
	  "owner" : {
		"display_name" : "Grant Spencer Meek",
		"external_urls" : {
		  "spotify" : "https://open.spotify.com/user/1162685727"
		},
		"href" : "https://api.spotify.com/v1/users/1162685727",
		"id" : "1162685727",
		"type" : "user",
		"uri" : "spotify:user:1162685727"
	  },
	  "primary_color" : null,
	  "public" : true,
	  "snapshot_id" : "OSxhNjM4N2FmZjZmOTRmYWQxMzcyZDlkZjVkMGUxZTY4YWQyZmVjODZl",
	  "tracks" : {
		"href" : "https://api.spotify.com/v1/playlists/4i5BSEnpCPoZpi8IYJVEqz/tracks",
		"total" : 5
	  },
	  "type" : "playlist",
	  "uri" : "spotify:playlist:4i5BSEnpCPoZpi8IYJVEqz"
	}, {
	  "collaborative" : false,
	  "description" : "",
	  "external_urls" : {
		"spotify" : "https://open.spotify.com/playlist/6TBC6rrWpLZfbu7xEl82h1"
	  },
	  "href" : "https://api.spotify.com/v1/playlists/6TBC6rrWpLZfbu7xEl82h1",
	  "id" : "6TBC6rrWpLZfbu7xEl82h1",
	  "images" : [ {
		"height" : 640,
		"url" : "https://mosaic.scdn.co/640/9f0b1ff288db5edb0b916d2e453f0f0476d9a286a4b2d29cda430ccd66fdbd3f82594584d0c41e45ab67616d0000b273028c5b35877c50728e910376ab67616d0000b273347ab9e76f65fdd71ecc4bec",
		"width" : 640
	  }, {
		"height" : 300,
		"url" : "https://mosaic.scdn.co/300/9f0b1ff288db5edb0b916d2e453f0f0476d9a286a4b2d29cda430ccd66fdbd3f82594584d0c41e45ab67616d0000b273028c5b35877c50728e910376ab67616d0000b273347ab9e76f65fdd71ecc4bec",
		"width" : 300
	  }, {
		"height" : 60,
		"url" : "https://mosaic.scdn.co/60/9f0b1ff288db5edb0b916d2e453f0f0476d9a286a4b2d29cda430ccd66fdbd3f82594584d0c41e45ab67616d0000b273028c5b35877c50728e910376ab67616d0000b273347ab9e76f65fdd71ecc4bec",
		"width" : 60
	  } ],
	  "name" : "August Top 5 2004",
	  "owner" : {
		"display_name" : "Grant Spencer Meek",
		"external_urls" : {
		  "spotify" : "https://open.spotify.com/user/1162685727"
		},
		"href" : "https://api.spotify.com/v1/users/1162685727",
		"id" : "1162685727",
		"type" : "user",
		"uri" : "spotify:user:1162685727"
	  },
	  "primary_color" : null,
	  "public" : true,
	  "snapshot_id" : "MTgsNTE4ODdhNzhhNzY3MjQyMDIzZGEzZjViYWNkMzdkZmNjNGU4NDMyNg==",
	  "tracks" : {
		"href" : "https://api.spotify.com/v1/playlists/6TBC6rrWpLZfbu7xEl82h1/tracks",
		"total" : 5
	  },
	  "type" : "playlist",
	  "uri" : "spotify:playlist:6TBC6rrWpLZfbu7xEl82h1"
	}, {
	  "collaborative" : false,
	  "description" : "",
	  "external_urls" : {
		"spotify" : "https://open.spotify.com/playlist/55tCG8VnVfVo4909ZizauO"
	  },
	  "href" : "https://api.spotify.com/v1/playlists/55tCG8VnVfVo4909ZizauO",
	  "id" : "55tCG8VnVfVo4909ZizauO",
	  "images" : [ {
		"height" : 640,
		"url" : "https://mosaic.scdn.co/640/5052582db2a26b33a45486b0fab58cbec6f200a99f0b1ff288db5edb0b916d2e453f0f0476d9a286ab67616d0000b2735c2d2f43471655dbbf3d6284ab67616d0000b273796eddfdba31dc1a7b6df98e",
		"width" : 640
	  }, {
		"height" : 300,
		"url" : "https://mosaic.scdn.co/300/5052582db2a26b33a45486b0fab58cbec6f200a99f0b1ff288db5edb0b916d2e453f0f0476d9a286ab67616d0000b2735c2d2f43471655dbbf3d6284ab67616d0000b273796eddfdba31dc1a7b6df98e",
		"width" : 300
	  }, {
		"height" : 60,
		"url" : "https://mosaic.scdn.co/60/5052582db2a26b33a45486b0fab58cbec6f200a99f0b1ff288db5edb0b916d2e453f0f0476d9a286ab67616d0000b2735c2d2f43471655dbbf3d6284ab67616d0000b273796eddfdba31dc1a7b6df98e",
		"width" : 60
	  } ],
	  "name" : "September Top 5 2004",
	  "owner" : {
		"display_name" : "Grant Spencer Meek",
		"external_urls" : {
		  "spotify" : "https://open.spotify.com/user/1162685727"
		},
		"href" : "https://api.spotify.com/v1/users/1162685727",
		"id" : "1162685727",
		"type" : "user",
		"uri" : "spotify:user:1162685727"
	  },
	  "primary_color" : null,
	  "public" : true,
	  "snapshot_id" : "MjAsY2I5ZWI4YWRjMjk5OTRmN2M1NzQxZjRkZGI3M2Y5ZjY3NmNiNTcxYg==",
	  "tracks" : {
		"href" : "https://api.spotify.com/v1/playlists/55tCG8VnVfVo4909ZizauO/tracks",
		"total" : 5
	  },
	  "type" : "playlist",
	  "uri" : "spotify:playlist:55tCG8VnVfVo4909ZizauO"
	}, {
	  "collaborative" : false,
	  "description" : "",
	  "external_urls" : {
		"spotify" : "https://open.spotify.com/playlist/1oPJxEk3KHSYkqH2d6jIX0"
	  },
	  "href" : "https://api.spotify.com/v1/playlists/1oPJxEk3KHSYkqH2d6jIX0",
	  "id" : "1oPJxEk3KHSYkqH2d6jIX0",
	  "images" : [ {
		"height" : 640,
		"url" : "https://mosaic.scdn.co/640/473b94338f52d500c7a115a3ce505b0cbf87fd679cddf92a2f587911450fab71463988643d9b4a3eab67616d0000b27347d1abf4ee582bd7e19d8ac2ab67616d0000b2737f02102fd54b157fd1dd6fa4",
		"width" : 640
	  }, {
		"height" : 300,
		"url" : "https://mosaic.scdn.co/300/473b94338f52d500c7a115a3ce505b0cbf87fd679cddf92a2f587911450fab71463988643d9b4a3eab67616d0000b27347d1abf4ee582bd7e19d8ac2ab67616d0000b2737f02102fd54b157fd1dd6fa4",
		"width" : 300
	  }, {
		"height" : 60,
		"url" : "https://mosaic.scdn.co/60/473b94338f52d500c7a115a3ce505b0cbf87fd679cddf92a2f587911450fab71463988643d9b4a3eab67616d0000b27347d1abf4ee582bd7e19d8ac2ab67616d0000b2737f02102fd54b157fd1dd6fa4",
		"width" : 60
	  } ],
	  "name" : "October Top 5 2004",
	  "owner" : {
		"display_name" : "Grant Spencer Meek",
		"external_urls" : {
		  "spotify" : "https://open.spotify.com/user/1162685727"
		},
		"href" : "https://api.spotify.com/v1/users/1162685727",
		"id" : "1162685727",
		"type" : "user",
		"uri" : "spotify:user:1162685727"
	  },
	  "primary_color" : null,
	  "public" : true,
	  "snapshot_id" : "MTksYzY2NDJlMzJlODZjZjViYTZjYjI4ZDhiOGZlM2IzMjRmMGI5YTU1Zg==",
	  "tracks" : {
		"href" : "https://api.spotify.com/v1/playlists/1oPJxEk3KHSYkqH2d6jIX0/tracks",
		"total" : 5
	  },
	  "type" : "playlist",
	  "uri" : "spotify:playlist:1oPJxEk3KHSYkqH2d6jIX0"
	}, {
	  "collaborative" : false,
	  "description" : "",
	  "external_urls" : {
		"spotify" : "https://open.spotify.com/playlist/6T7zDjOowpYSsPbD23c5Pc"
	  },
	  "href" : "https://api.spotify.com/v1/playlists/6T7zDjOowpYSsPbD23c5Pc",
	  "id" : "6T7zDjOowpYSsPbD23c5Pc",
	  "images" : [ {
		"height" : 640,
		"url" : "https://mosaic.scdn.co/640/ab67616d0000b2733516afe54a2e1a3eb17abd8eab67616d0000b273f13272791427c9cef353d5e9ab67616d0000b273f29492d52db3c764086dd599ab67616d0000b273f94461acebee60775ea22e77",
		"width" : 640
	  }, {
		"height" : 300,
		"url" : "https://mosaic.scdn.co/300/ab67616d0000b2733516afe54a2e1a3eb17abd8eab67616d0000b273f13272791427c9cef353d5e9ab67616d0000b273f29492d52db3c764086dd599ab67616d0000b273f94461acebee60775ea22e77",
		"width" : 300
	  }, {
		"height" : 60,
		"url" : "https://mosaic.scdn.co/60/ab67616d0000b2733516afe54a2e1a3eb17abd8eab67616d0000b273f13272791427c9cef353d5e9ab67616d0000b273f29492d52db3c764086dd599ab67616d0000b273f94461acebee60775ea22e77",
		"width" : 60
	  } ],
	  "name" : "November Top 5 2004",
	  "owner" : {
		"display_name" : "Grant Spencer Meek",
		"external_urls" : {
		  "spotify" : "https://open.spotify.com/user/1162685727"
		},
		"href" : "https://api.spotify.com/v1/users/1162685727",
		"id" : "1162685727",
		"type" : "user",
		"uri" : "spotify:user:1162685727"
	  },
	  "primary_color" : null,
	  "public" : true,
	  "snapshot_id" : "MTIsNGJlMWI2YTBkYjE2NTBkYjI2ZDBhMmZmYTI2MmRkZDM0MzFhYTJhMA==",
	  "tracks" : {
		"href" : "https://api.spotify.com/v1/playlists/6T7zDjOowpYSsPbD23c5Pc/tracks",
		"total" : 5
	  },
	  "type" : "playlist",
	  "uri" : "spotify:playlist:6T7zDjOowpYSsPbD23c5Pc"
	}, {
	  "collaborative" : false,
	  "description" : "",
	  "external_urls" : {
		"spotify" : "https://open.spotify.com/playlist/62lhywPz3fZ7VnIuQDa2YQ"
	  },
	  "href" : "https://api.spotify.com/v1/playlists/62lhywPz3fZ7VnIuQDa2YQ",
	  "id" : "62lhywPz3fZ7VnIuQDa2YQ",
	  "images" : [ {
		"height" : 640,
		"url" : "https://mosaic.scdn.co/640/ab67616d0000b2730797b2dcca7a453c3374c599ab67616d0000b2736400fab74f28e90759ac8815ab67616d0000b273d1777023f70706dd2a06cb73ab67616d0000b273eb38b8c5fada9278e9869e70",
		"width" : 640
	  }, {
		"height" : 300,
		"url" : "https://mosaic.scdn.co/300/ab67616d0000b2730797b2dcca7a453c3374c599ab67616d0000b2736400fab74f28e90759ac8815ab67616d0000b273d1777023f70706dd2a06cb73ab67616d0000b273eb38b8c5fada9278e9869e70",
		"width" : 300
	  }, {
		"height" : 60,
		"url" : "https://mosaic.scdn.co/60/ab67616d0000b2730797b2dcca7a453c3374c599ab67616d0000b2736400fab74f28e90759ac8815ab67616d0000b273d1777023f70706dd2a06cb73ab67616d0000b273eb38b8c5fada9278e9869e70",
		"width" : 60
	  } ],
	  "name" : "December Top 5 2004",
	  "owner" : {
		"display_name" : "Grant Spencer Meek",
		"external_urls" : {
		  "spotify" : "https://open.spotify.com/user/1162685727"
		},
		"href" : "https://api.spotify.com/v1/users/1162685727",
		"id" : "1162685727",
		"type" : "user",
		"uri" : "spotify:user:1162685727"
	  },
	  "primary_color" : null,
	  "public" : true,
	  "snapshot_id" : "MTgsYzFlYjNiNjE2NTEzNTU0NTJhZGM4ODczY2I4MjdhMjFmNTNjOTgzMQ==",
	  "tracks" : {
		"href" : "https://api.spotify.com/v1/playlists/62lhywPz3fZ7VnIuQDa2YQ/tracks",
		"total" : 5
	  },
	  "type" : "playlist",
	  "uri" : "spotify:playlist:62lhywPz3fZ7VnIuQDa2YQ"
	}, {
	  "collaborative" : false,
	  "description" : "",
	  "external_urls" : {
		"spotify" : "https://open.spotify.com/playlist/7nQDz0EgSEo3SYh51uN2FH"
	  },
	  "href" : "https://api.spotify.com/v1/playlists/7nQDz0EgSEo3SYh51uN2FH",
	  "id" : "7nQDz0EgSEo3SYh51uN2FH",
	  "images" : [ {
		"height" : 640,
		"url" : "https://mosaic.scdn.co/640/ab67616d0000b273574676c83aa0538007aff6b0ab67616d0000b27366183ddc6eb4e35679df6a7fab67616d0000b2739b5d492cc3a9d09d3bc449c0ab67616d0000b273b2df9dc89c5c0cfbe79c129d",
		"width" : 640
	  }, {
		"height" : 300,
		"url" : "https://mosaic.scdn.co/300/ab67616d0000b273574676c83aa0538007aff6b0ab67616d0000b27366183ddc6eb4e35679df6a7fab67616d0000b2739b5d492cc3a9d09d3bc449c0ab67616d0000b273b2df9dc89c5c0cfbe79c129d",
		"width" : 300
	  }, {
		"height" : 60,
		"url" : "https://mosaic.scdn.co/60/ab67616d0000b273574676c83aa0538007aff6b0ab67616d0000b27366183ddc6eb4e35679df6a7fab67616d0000b2739b5d492cc3a9d09d3bc449c0ab67616d0000b273b2df9dc89c5c0cfbe79c129d",
		"width" : 60
	  } ],
	  "name" : "November Top 5 2003",
	  "owner" : {
		"display_name" : "Grant Spencer Meek",
		"external_urls" : {
		  "spotify" : "https://open.spotify.com/user/1162685727"
		},
		"href" : "https://api.spotify.com/v1/users/1162685727",
		"id" : "1162685727",
		"type" : "user",
		"uri" : "spotify:user:1162685727"
	  },
	  "primary_color" : null,
	  "public" : true,
	  "snapshot_id" : "MTQsNzBkNmZiMjI4ZDJlN2Y1YWZhMGQxMjdmN2UwNWU4ODJhZjcyMzk4OA==",
	  "tracks" : {
		"href" : "https://api.spotify.com/v1/playlists/7nQDz0EgSEo3SYh51uN2FH/tracks",
		"total" : 5
	  },
	  "type" : "playlist",
	  "uri" : "spotify:playlist:7nQDz0EgSEo3SYh51uN2FH"
	}, {
	  "collaborative" : false,
	  "description" : "",
	  "external_urls" : {
		"spotify" : "https://open.spotify.com/playlist/2i7Gp9loUX1zIQYH8xsQQk"
	  },
	  "href" : "https://api.spotify.com/v1/playlists/2i7Gp9loUX1zIQYH8xsQQk",
	  "id" : "2i7Gp9loUX1zIQYH8xsQQk",
	  "images" : [ {
		"height" : 640,
		"url" : "https://mosaic.scdn.co/640/ab67616d0000b2733f3fd55feef881afe15f9a74ab67616d0000b2736b141e77892ab2ccb60cf3cfab67616d0000b273ad218ed169c20a461fbc1d09ab67616d0000b273d043497fe0555d37cae33cd1",
		"width" : 640
	  }, {
		"height" : 300,
		"url" : "https://mosaic.scdn.co/300/ab67616d0000b2733f3fd55feef881afe15f9a74ab67616d0000b2736b141e77892ab2ccb60cf3cfab67616d0000b273ad218ed169c20a461fbc1d09ab67616d0000b273d043497fe0555d37cae33cd1",
		"width" : 300
	  }, {
		"height" : 60,
		"url" : "https://mosaic.scdn.co/60/ab67616d0000b2733f3fd55feef881afe15f9a74ab67616d0000b2736b141e77892ab2ccb60cf3cfab67616d0000b273ad218ed169c20a461fbc1d09ab67616d0000b273d043497fe0555d37cae33cd1",
		"width" : 60
	  } ],
	  "name" : "December Top 5 2003",
	  "owner" : {
		"display_name" : "Grant Spencer Meek",
		"external_urls" : {
		  "spotify" : "https://open.spotify.com/user/1162685727"
		},
		"href" : "https://api.spotify.com/v1/users/1162685727",
		"id" : "1162685727",
		"type" : "user",
		"uri" : "spotify:user:1162685727"
	  },
	  "primary_color" : null,
	  "public" : true,
	  "snapshot_id" : "MjQsMmYyMWNmNTc1MmU1NmE4OWRkOTM0YThiZTU3YTA1ZjVlYTk2NWNmZA==",
	  "tracks" : {
		"href" : "https://api.spotify.com/v1/playlists/2i7Gp9loUX1zIQYH8xsQQk/tracks",
		"total" : 5
	  },
	  "type" : "playlist",
	  "uri" : "spotify:playlist:2i7Gp9loUX1zIQYH8xsQQk"
	} ],
	"limit" : 40,
	"next" : "https://api.spotify.com/v1/users/1162685727/playlists?offset=220&limit=40",
	"offset" : 180,
	"previous" : "https://api.spotify.com/v1/users/1162685727/playlists?offset=140&limit=40",
	"total" : 280
  }