{
	"href" : "https://api.spotify.com/v1/users/1162685727/playlists?offset=40&limit=20",
	"items" : [ {
	  "collaborative" : false,
	  "description" : "",
	  "external_urls" : {
		"spotify" : "https://open.spotify.com/playlist/4YvDnAyzN7SfMbyuTzGgPv"
	  },
	  "href" : "https://api.spotify.com/v1/playlists/4YvDnAyzN7SfMbyuTzGgPv",
	  "id" : "4YvDnAyzN7SfMbyuTzGgPv",
	  "images" : [ {
		"height" : 640,
		"url" : "https://mosaic.scdn.co/640/ab67616d0000b273439337467ca1b5fb1917c3caab67616d0000b27370d25d80becc100937e951a7ab67616d0000b273b4a9148a73a4c433a3035451ab67616d0000b273d56deb34c3722b34eb51f111",
		"width" : 640
	  }, {
		"height" : 300,
		"url" : "https://mosaic.scdn.co/300/ab67616d0000b273439337467ca1b5fb1917c3caab67616d0000b27370d25d80becc100937e951a7ab67616d0000b273b4a9148a73a4c433a3035451ab67616d0000b273d56deb34c3722b34eb51f111",
		"width" : 300
	  }, {
		"height" : 60,
		"url" : "https://mosaic.scdn.co/60/ab67616d0000b273439337467ca1b5fb1917c3caab67616d0000b27370d25d80becc100937e951a7ab67616d0000b273b4a9148a73a4c433a3035451ab67616d0000b273d56deb34c3722b34eb51f111",
		"width" : 60
	  } ],
	  "name" : "February Top 5 2016",
	  "owner" : {
		"display_name" : "Grant Spencer Meek",
		"external_urls" : {
		  "spotify" : "https://open.spotify.com/user/1162685727"
		},
		"href" : "https://api.spotify.com/v1/users/1162685727",
		"id" : "1162685727",
		"type" : "user",
		"uri" : "spotify:user:1162685727"
	  },
	  "primary_color" : null,
	  "public" : true,
	  "snapshot_id" : "OCxlZmRlZmQyMTY2MTU1ZDYwODliZDkwNDBkZTdhYTQwYTQzYzkyZDAy",
	  "tracks" : {
		"href" : "https://api.spotify.com/v1/playlists/4YvDnAyzN7SfMbyuTzGgPv/tracks",
		"total" : 5
	  },
	  "type" : "playlist",
	  "uri" : "spotify:playlist:4YvDnAyzN7SfMbyuTzGgPv"
	}, {
	  "collaborative" : false,
	  "description" : "",
	  "external_urls" : {
		"spotify" : "https://open.spotify.com/playlist/3wilkJv4CY8M6DmhWjZe4O"
	  },
	  "href" : "https://api.spotify.com/v1/playlists/3wilkJv4CY8M6DmhWjZe4O",
	  "id" : "3wilkJv4CY8M6DmhWjZe4O",
	  "images" : [ {
		"height" : 640,
		"url" : "https://mosaic.scdn.co/640/9b89c77bc5ed3f8454a9e4f22892d97dfd9539dcab67616d0000b2733c661c1204b2fa506a9044c1ab67616d0000b2737b98d3b1113c7edaae8537aff2a0e31805608f6697be22f82e8385cfc760c525",
		"width" : 640
	  }, {
		"height" : 300,
		"url" : "https://mosaic.scdn.co/300/9b89c77bc5ed3f8454a9e4f22892d97dfd9539dcab67616d0000b2733c661c1204b2fa506a9044c1ab67616d0000b2737b98d3b1113c7edaae8537aff2a0e31805608f6697be22f82e8385cfc760c525",
		"width" : 300
	  }, {
		"height" : 60,
		"url" : "https://mosaic.scdn.co/60/9b89c77bc5ed3f8454a9e4f22892d97dfd9539dcab67616d0000b2733c661c1204b2fa506a9044c1ab67616d0000b2737b98d3b1113c7edaae8537aff2a0e31805608f6697be22f82e8385cfc760c525",
		"width" : 60
	  } ],
	  "name" : "March Top 5 2016",
	  "owner" : {
		"display_name" : "Grant Spencer Meek",
		"external_urls" : {
		  "spotify" : "https://open.spotify.com/user/1162685727"
		},
		"href" : "https://api.spotify.com/v1/users/1162685727",
		"id" : "1162685727",
		"type" : "user",
		"uri" : "spotify:user:1162685727"
	  },
	  "primary_color" : null,
	  "public" : true,
	  "snapshot_id" : "OCxiODA2ZmQyMzgwYmFjYmMwYzM2M2NkMGJiZjI4YjZjY2NjMDk3NzE4",
	  "tracks" : {
		"href" : "https://api.spotify.com/v1/playlists/3wilkJv4CY8M6DmhWjZe4O/tracks",
		"total" : 5
	  },
	  "type" : "playlist",
	  "uri" : "spotify:playlist:3wilkJv4CY8M6DmhWjZe4O"
	}, {
	  "collaborative" : false,
	  "description" : "",
	  "external_urls" : {
		"spotify" : "https://open.spotify.com/playlist/0nZHrd2fme3Bvc8epP2QrL"
	  },
	  "href" : "https://api.spotify.com/v1/playlists/0nZHrd2fme3Bvc8epP2QrL",
	  "id" : "0nZHrd2fme3Bvc8epP2QrL",
	  "images" : [ {
		"height" : 640,
		"url" : "https://mosaic.scdn.co/640/ab67616d0000b27309d17008b3b539c2fb5ebd50ab67616d0000b2733c661c1204b2fa506a9044c1ab67616d0000b27349ca53fa1479e4e05679b22eab67616d0000b2737988db4ed88e7d50f8b634cb",
		"width" : 640
	  }, {
		"height" : 300,
		"url" : "https://mosaic.scdn.co/300/ab67616d0000b27309d17008b3b539c2fb5ebd50ab67616d0000b2733c661c1204b2fa506a9044c1ab67616d0000b27349ca53fa1479e4e05679b22eab67616d0000b2737988db4ed88e7d50f8b634cb",
		"width" : 300
	  }, {
		"height" : 60,
		"url" : "https://mosaic.scdn.co/60/ab67616d0000b27309d17008b3b539c2fb5ebd50ab67616d0000b2733c661c1204b2fa506a9044c1ab67616d0000b27349ca53fa1479e4e05679b22eab67616d0000b2737988db4ed88e7d50f8b634cb",
		"width" : 60
	  } ],
	  "name" : "April Top 5 2016",
	  "owner" : {
		"display_name" : "Grant Spencer Meek",
		"external_urls" : {
		  "spotify" : "https://open.spotify.com/user/1162685727"
		},
		"href" : "https://api.spotify.com/v1/users/1162685727",
		"id" : "1162685727",
		"type" : "user",
		"uri" : "spotify:user:1162685727"
	  },
	  "primary_color" : null,
	  "public" : true,
	  "snapshot_id" : "MTEsODJmYmY1YjRjOGE3MTdmOThlNWE2NjY2MjQwZmU0NjM5OTE4ODQ1YQ==",
	  "tracks" : {
		"href" : "https://api.spotify.com/v1/playlists/0nZHrd2fme3Bvc8epP2QrL/tracks",
		"total" : 5
	  },
	  "type" : "playlist",
	  "uri" : "spotify:playlist:0nZHrd2fme3Bvc8epP2QrL"
	}, {
	  "collaborative" : false,
	  "description" : "",
	  "external_urls" : {
		"spotify" : "https://open.spotify.com/playlist/3PoC1T8K3XtCVnvDM5ovM3"
	  },
	  "href" : "https://api.spotify.com/v1/playlists/3PoC1T8K3XtCVnvDM5ovM3",
	  "id" : "3PoC1T8K3XtCVnvDM5ovM3",
	  "images" : [ {
		"height" : 640,
		"url" : "https://mosaic.scdn.co/640/249248e704f34007898ef0465f3c2b1c521d4347ab67616d0000b2730607f37a263d1ba326a6af4eab67616d0000b273ecaa2f9dd8c165dc0627be7eb6c3a8c8747457e67817ed8f6146fc75ecd60a11",
		"width" : 640
	  }, {
		"height" : 300,
		"url" : "https://mosaic.scdn.co/300/249248e704f34007898ef0465f3c2b1c521d4347ab67616d0000b2730607f37a263d1ba326a6af4eab67616d0000b273ecaa2f9dd8c165dc0627be7eb6c3a8c8747457e67817ed8f6146fc75ecd60a11",
		"width" : 300
	  }, {
		"height" : 60,
		"url" : "https://mosaic.scdn.co/60/249248e704f34007898ef0465f3c2b1c521d4347ab67616d0000b2730607f37a263d1ba326a6af4eab67616d0000b273ecaa2f9dd8c165dc0627be7eb6c3a8c8747457e67817ed8f6146fc75ecd60a11",
		"width" : 60
	  } ],
	  "name" : "May Top 5 2016",
	  "owner" : {
		"display_name" : "Grant Spencer Meek",
		"external_urls" : {
		  "spotify" : "https://open.spotify.com/user/1162685727"
		},
		"href" : "https://api.spotify.com/v1/users/1162685727",
		"id" : "1162685727",
		"type" : "user",
		"uri" : "spotify:user:1162685727"
	  },
	  "primary_color" : null,
	  "public" : true,
	  "snapshot_id" : "MTIsM2I1NTQ2YTM2ZWRkMjYzZGQyMGYwZjA5YTA4MTc0MmIyYTRjZWU3Zg==",
	  "tracks" : {
		"href" : "https://api.spotify.com/v1/playlists/3PoC1T8K3XtCVnvDM5ovM3/tracks",
		"total" : 5
	  },
	  "type" : "playlist",
	  "uri" : "spotify:playlist:3PoC1T8K3XtCVnvDM5ovM3"
	}, {
	  "collaborative" : false,
	  "description" : "",
	  "external_urls" : {
		"spotify" : "https://open.spotify.com/playlist/7F5WRpxABIAyWSYxdD55Sh"
	  },
	  "href" : "https://api.spotify.com/v1/playlists/7F5WRpxABIAyWSYxdD55Sh",
	  "id" : "7F5WRpxABIAyWSYxdD55Sh",
	  "images" : [ {
		"height" : 640,
		"url" : "https://mosaic.scdn.co/640/ab67616d0000b2730365011d800890bd210dd043ab67616d0000b2739da70471ffe669ff4f69e1f7ab67616d0000b273aaba065944cd82a6f15c86b6ab67616d0000b273c342e56ba3a3d3bc074f6c49",
		"width" : 640
	  }, {
		"height" : 300,
		"url" : "https://mosaic.scdn.co/300/ab67616d0000b2730365011d800890bd210dd043ab67616d0000b2739da70471ffe669ff4f69e1f7ab67616d0000b273aaba065944cd82a6f15c86b6ab67616d0000b273c342e56ba3a3d3bc074f6c49",
		"width" : 300
	  }, {
		"height" : 60,
		"url" : "https://mosaic.scdn.co/60/ab67616d0000b2730365011d800890bd210dd043ab67616d0000b2739da70471ffe669ff4f69e1f7ab67616d0000b273aaba065944cd82a6f15c86b6ab67616d0000b273c342e56ba3a3d3bc074f6c49",
		"width" : 60
	  } ],
	  "name" : "June Top 5 2016",
	  "owner" : {
		"display_name" : "Grant Spencer Meek",
		"external_urls" : {
		  "spotify" : "https://open.spotify.com/user/1162685727"
		},
		"href" : "https://api.spotify.com/v1/users/1162685727",
		"id" : "1162685727",
		"type" : "user",
		"uri" : "spotify:user:1162685727"
	  },
	  "primary_color" : null,
	  "public" : true,
	  "snapshot_id" : "MTMsN2RkMDEzNGQ5NmNhZWQwYjhiM2U5MjUzNWMxNGQ0NGEzMmExYjBlMA==",
	  "tracks" : {
		"href" : "https://api.spotify.com/v1/playlists/7F5WRpxABIAyWSYxdD55Sh/tracks",
		"total" : 5
	  },
	  "type" : "playlist",
	  "uri" : "spotify:playlist:7F5WRpxABIAyWSYxdD55Sh"
	}, {
	  "collaborative" : false,
	  "description" : "",
	  "external_urls" : {
		"spotify" : "https://open.spotify.com/playlist/7A6kV4GKeLu4ro9Dc33582"
	  },
	  "href" : "https://api.spotify.com/v1/playlists/7A6kV4GKeLu4ro9Dc33582",
	  "id" : "7A6kV4GKeLu4ro9Dc33582",
	  "images" : [ {
		"height" : 640,
		"url" : "https://mosaic.scdn.co/640/ab67616d0000b27314ef1ffb643dd19417db5801ab67616d0000b2733713f608b5af7c58d2e658d3ab67616d0000b273558da9e30e8178ef1ebaf365bce3b43d049d7c5521a5db9b38aee75319235363",
		"width" : 640
	  }, {
		"height" : 300,
		"url" : "https://mosaic.scdn.co/300/ab67616d0000b27314ef1ffb643dd19417db5801ab67616d0000b2733713f608b5af7c58d2e658d3ab67616d0000b273558da9e30e8178ef1ebaf365bce3b43d049d7c5521a5db9b38aee75319235363",
		"width" : 300
	  }, {
		"height" : 60,
		"url" : "https://mosaic.scdn.co/60/ab67616d0000b27314ef1ffb643dd19417db5801ab67616d0000b2733713f608b5af7c58d2e658d3ab67616d0000b273558da9e30e8178ef1ebaf365bce3b43d049d7c5521a5db9b38aee75319235363",
		"width" : 60
	  } ],
	  "name" : "July Top 5 2016",
	  "owner" : {
		"display_name" : "Grant Spencer Meek",
		"external_urls" : {
		  "spotify" : "https://open.spotify.com/user/1162685727"
		},
		"href" : "https://api.spotify.com/v1/users/1162685727",
		"id" : "1162685727",
		"type" : "user",
		"uri" : "spotify:user:1162685727"
	  },
	  "primary_color" : null,
	  "public" : true,
	  "snapshot_id" : "MTAsMzRiNDAyYjhhZTNmOGNiY2NiZGRiNzdmNGRlZDMwMzc0YmJmYzM1Mg==",
	  "tracks" : {
		"href" : "https://api.spotify.com/v1/playlists/7A6kV4GKeLu4ro9Dc33582/tracks",
		"total" : 5
	  },
	  "type" : "playlist",
	  "uri" : "spotify:playlist:7A6kV4GKeLu4ro9Dc33582"
	}, {
	  "collaborative" : false,
	  "description" : "",
	  "external_urls" : {
		"spotify" : "https://open.spotify.com/playlist/5gtQ87kFBdtqKqJYLPqZxm"
	  },
	  "href" : "https://api.spotify.com/v1/playlists/5gtQ87kFBdtqKqJYLPqZxm",
	  "id" : "5gtQ87kFBdtqKqJYLPqZxm",
	  "images" : [ {
		"height" : 640,
		"url" : "https://mosaic.scdn.co/640/0ee0819987c91e452b302a42862631fb7415d45861c36e98b81850646e838c04bcdf1253566132aeab67616d0000b2731f00f2682359113bb62faf8bab67616d0000b2736f43822692f9da387e0b45c5",
		"width" : 640
	  }, {
		"height" : 300,
		"url" : "https://mosaic.scdn.co/300/0ee0819987c91e452b302a42862631fb7415d45861c36e98b81850646e838c04bcdf1253566132aeab67616d0000b2731f00f2682359113bb62faf8bab67616d0000b2736f43822692f9da387e0b45c5",
		"width" : 300
	  }, {
		"height" : 60,
		"url" : "https://mosaic.scdn.co/60/0ee0819987c91e452b302a42862631fb7415d45861c36e98b81850646e838c04bcdf1253566132aeab67616d0000b2731f00f2682359113bb62faf8bab67616d0000b2736f43822692f9da387e0b45c5",
		"width" : 60
	  } ],
	  "name" : "August Top 5 2016",
	  "owner" : {
		"display_name" : "Grant Spencer Meek",
		"external_urls" : {
		  "spotify" : "https://open.spotify.com/user/1162685727"
		},
		"href" : "https://api.spotify.com/v1/users/1162685727",
		"id" : "1162685727",
		"type" : "user",
		"uri" : "spotify:user:1162685727"
	  },
	  "primary_color" : null,
	  "public" : true,
	  "snapshot_id" : "OSw0NzQyMzAyY2M2MGMxOWZmMTg1OWViYmRkODQ4OGFlYjAwZTExYzIx",
	  "tracks" : {
		"href" : "https://api.spotify.com/v1/playlists/5gtQ87kFBdtqKqJYLPqZxm/tracks",
		"total" : 5
	  },
	  "type" : "playlist",
	  "uri" : "spotify:playlist:5gtQ87kFBdtqKqJYLPqZxm"
	}, {
	  "collaborative" : false,
	  "description" : "",
	  "external_urls" : {
		"spotify" : "https://open.spotify.com/playlist/5JhwyhOfjNbjggvxmiJZE0"
	  },
	  "href" : "https://api.spotify.com/v1/playlists/5JhwyhOfjNbjggvxmiJZE0",
	  "id" : "5JhwyhOfjNbjggvxmiJZE0",
	  "images" : [ {
		"height" : 640,
		"url" : "https://mosaic.scdn.co/640/345b06f5087cbbf8415b0bcc06758516321e153aab67616d0000b2730e5cba0c0ee07d90cffacf2bab67616d0000b273102f09ad3fd0578545ee4cf0ab67616d0000b273b00ee453b3496535eaa6e4b3",
		"width" : 640
	  }, {
		"height" : 300,
		"url" : "https://mosaic.scdn.co/300/345b06f5087cbbf8415b0bcc06758516321e153aab67616d0000b2730e5cba0c0ee07d90cffacf2bab67616d0000b273102f09ad3fd0578545ee4cf0ab67616d0000b273b00ee453b3496535eaa6e4b3",
		"width" : 300
	  }, {
		"height" : 60,
		"url" : "https://mosaic.scdn.co/60/345b06f5087cbbf8415b0bcc06758516321e153aab67616d0000b2730e5cba0c0ee07d90cffacf2bab67616d0000b273102f09ad3fd0578545ee4cf0ab67616d0000b273b00ee453b3496535eaa6e4b3",
		"width" : 60
	  } ],
	  "name" : "September Top 5 2016",
	  "owner" : {
		"display_name" : "Grant Spencer Meek",
		"external_urls" : {
		  "spotify" : "https://open.spotify.com/user/1162685727"
		},
		"href" : "https://api.spotify.com/v1/users/1162685727",
		"id" : "1162685727",
		"type" : "user",
		"uri" : "spotify:user:1162685727"
	  },
	  "primary_color" : null,
	  "public" : true,
	  "snapshot_id" : "NyxjOWVkZGMzYjU4ODU4NmNiMDI4ZTc3YmQzY2Y2OTI2NmI3MGMxZjk0",
	  "tracks" : {
		"href" : "https://api.spotify.com/v1/playlists/5JhwyhOfjNbjggvxmiJZE0/tracks",
		"total" : 5
	  },
	  "type" : "playlist",
	  "uri" : "spotify:playlist:5JhwyhOfjNbjggvxmiJZE0"
	}, {
	  "collaborative" : false,
	  "description" : "",
	  "external_urls" : {
		"spotify" : "https://open.spotify.com/playlist/61LQBS2l6lK1yo1RvTx5Le"
	  },
	  "href" : "https://api.spotify.com/v1/playlists/61LQBS2l6lK1yo1RvTx5Le",
	  "id" : "61LQBS2l6lK1yo1RvTx5Le",
	  "images" : [ {
		"height" : 640,
		"url" : "https://mosaic.scdn.co/640/6fe38279b80bb042fd76c780f070819112832accab67616d0000b27380c8257f3e17780ea2a4bab0ab67616d0000b273b3994c94dfb241923664bb4db1988428932edacd2009cb2f1b4ccbcdb5f26ffc",
		"width" : 640
	  }, {
		"height" : 300,
		"url" : "https://mosaic.scdn.co/300/6fe38279b80bb042fd76c780f070819112832accab67616d0000b27380c8257f3e17780ea2a4bab0ab67616d0000b273b3994c94dfb241923664bb4db1988428932edacd2009cb2f1b4ccbcdb5f26ffc",
		"width" : 300
	  }, {
		"height" : 60,
		"url" : "https://mosaic.scdn.co/60/6fe38279b80bb042fd76c780f070819112832accab67616d0000b27380c8257f3e17780ea2a4bab0ab67616d0000b273b3994c94dfb241923664bb4db1988428932edacd2009cb2f1b4ccbcdb5f26ffc",
		"width" : 60
	  } ],
	  "name" : "October Top 5 2016",
	  "owner" : {
		"display_name" : "Grant Spencer Meek",
		"external_urls" : {
		  "spotify" : "https://open.spotify.com/user/1162685727"
		},
		"href" : "https://api.spotify.com/v1/users/1162685727",
		"id" : "1162685727",
		"type" : "user",
		"uri" : "spotify:user:1162685727"
	  },
	  "primary_color" : null,
	  "public" : true,
	  "snapshot_id" : "OSw0OTA3NzBjYTQzNWMwNjZjNjMwN2QwYWU3OWYxYjQwOTA0ZGQ5NGE5",
	  "tracks" : {
		"href" : "https://api.spotify.com/v1/playlists/61LQBS2l6lK1yo1RvTx5Le/tracks",
		"total" : 5
	  },
	  "type" : "playlist",
	  "uri" : "spotify:playlist:61LQBS2l6lK1yo1RvTx5Le"
	}, {
	  "collaborative" : false,
	  "description" : "",
	  "external_urls" : {
		"spotify" : "https://open.spotify.com/playlist/6prVXdINopHvqWvKtMuDtA"
	  },
	  "href" : "https://api.spotify.com/v1/playlists/6prVXdINopHvqWvKtMuDtA",
	  "id" : "6prVXdINopHvqWvKtMuDtA",
	  "images" : [ {
		"height" : 640,
		"url" : "https://mosaic.scdn.co/640/ab67616d0000b27309148992365fe4262afba885ab67616d0000b2735f5dc0f546406ec5a96018bbab67616d0000b273df092eda8e424549771f9fa9ab67616d0000b273f2b52171d2a01a7a83be7afd",
		"width" : 640
	  }, {
		"height" : 300,
		"url" : "https://mosaic.scdn.co/300/ab67616d0000b27309148992365fe4262afba885ab67616d0000b2735f5dc0f546406ec5a96018bbab67616d0000b273df092eda8e424549771f9fa9ab67616d0000b273f2b52171d2a01a7a83be7afd",
		"width" : 300
	  }, {
		"height" : 60,
		"url" : "https://mosaic.scdn.co/60/ab67616d0000b27309148992365fe4262afba885ab67616d0000b2735f5dc0f546406ec5a96018bbab67616d0000b273df092eda8e424549771f9fa9ab67616d0000b273f2b52171d2a01a7a83be7afd",
		"width" : 60
	  } ],
	  "name" : "November Top 5 2016",
	  "owner" : {
		"display_name" : "Grant Spencer Meek",
		"external_urls" : {
		  "spotify" : "https://open.spotify.com/user/1162685727"
		},
		"href" : "https://api.spotify.com/v1/users/1162685727",
		"id" : "1162685727",
		"type" : "user",
		"uri" : "spotify:user:1162685727"
	  },
	  "primary_color" : null,
	  "public" : true,
	  "snapshot_id" : "OSxmZDI0ZjZhNGYwOTcxNjA5MTc1NjA4NjRkMDJhYWFiYmM1NjAyZDY0",
	  "tracks" : {
		"href" : "https://api.spotify.com/v1/playlists/6prVXdINopHvqWvKtMuDtA/tracks",
		"total" : 5
	  },
	  "type" : "playlist",
	  "uri" : "spotify:playlist:6prVXdINopHvqWvKtMuDtA"
	}, {
	  "collaborative" : false,
	  "description" : "",
	  "external_urls" : {
		"spotify" : "https://open.spotify.com/playlist/46FTuq0NgJ5KutaeqSgZVM"
	  },
	  "href" : "https://api.spotify.com/v1/playlists/46FTuq0NgJ5KutaeqSgZVM",
	  "id" : "46FTuq0NgJ5KutaeqSgZVM",
	  "images" : [ {
		"height" : 640,
		"url" : "https://mosaic.scdn.co/640/8b732956555a069c3d8a420b02e3db6bd63556d3ab67616d0000b2732fd7d03e76c3133676107813ab67616d0000b27344a8b592f8f06125767988d5ab67616d0000b27386e65fdff3a7ff5f76d84665",
		"width" : 640
	  }, {
		"height" : 300,
		"url" : "https://mosaic.scdn.co/300/8b732956555a069c3d8a420b02e3db6bd63556d3ab67616d0000b2732fd7d03e76c3133676107813ab67616d0000b27344a8b592f8f06125767988d5ab67616d0000b27386e65fdff3a7ff5f76d84665",
		"width" : 300
	  }, {
		"height" : 60,
		"url" : "https://mosaic.scdn.co/60/8b732956555a069c3d8a420b02e3db6bd63556d3ab67616d0000b2732fd7d03e76c3133676107813ab67616d0000b27344a8b592f8f06125767988d5ab67616d0000b27386e65fdff3a7ff5f76d84665",
		"width" : 60
	  } ],
	  "name" : "December Top 5 2016",
	  "owner" : {
		"display_name" : "Grant Spencer Meek",
		"external_urls" : {
		  "spotify" : "https://open.spotify.com/user/1162685727"
		},
		"href" : "https://api.spotify.com/v1/users/1162685727",
		"id" : "1162685727",
		"type" : "user",
		"uri" : "spotify:user:1162685727"
	  },
	  "primary_color" : null,
	  "public" : true,
	  "snapshot_id" : "NyxhNGFjNjhhZTI0NTQzY2EwNmMxYmUzYmU3YjVlZmVlMzllMzFkY2U0",
	  "tracks" : {
		"href" : "https://api.spotify.com/v1/playlists/46FTuq0NgJ5KutaeqSgZVM/tracks",
		"total" : 5
	  },
	  "type" : "playlist",
	  "uri" : "spotify:playlist:46FTuq0NgJ5KutaeqSgZVM"
	}, {
	  "collaborative" : false,
	  "description" : "",
	  "external_urls" : {
		"spotify" : "https://open.spotify.com/playlist/7cvHM2IvxSJ5IJMTWAomgi"
	  },
	  "href" : "https://api.spotify.com/v1/playlists/7cvHM2IvxSJ5IJMTWAomgi",
	  "id" : "7cvHM2IvxSJ5IJMTWAomgi",
	  "images" : [ {
		"height" : 640,
		"url" : "https://i.scdn.co/image/5f0feadbf64d24ec1b3b3badf78aaea59e4d5382",
		"width" : 640
	  } ],
	  "name" : "January Top 5 2015",
	  "owner" : {
		"display_name" : "Grant Spencer Meek",
		"external_urls" : {
		  "spotify" : "https://open.spotify.com/user/1162685727"
		},
		"href" : "https://api.spotify.com/v1/users/1162685727",
		"id" : "1162685727",
		"type" : "user",
		"uri" : "spotify:user:1162685727"
	  },
	  "primary_color" : null,
	  "public" : true,
	  "snapshot_id" : "NixhMjFjY2I1NTk2ZjMzZGU4YTg0YWViZTQ4ZjExNjU3YWZiNGM1ZGQ1",
	  "tracks" : {
		"href" : "https://api.spotify.com/v1/playlists/7cvHM2IvxSJ5IJMTWAomgi/tracks",
		"total" : 5
	  },
	  "type" : "playlist",
	  "uri" : "spotify:playlist:7cvHM2IvxSJ5IJMTWAomgi"
	}, {
	  "collaborative" : false,
	  "description" : "",
	  "external_urls" : {
		"spotify" : "https://open.spotify.com/playlist/4gmoQ4xH5ylv0QYFSlrWAe"
	  },
	  "href" : "https://api.spotify.com/v1/playlists/4gmoQ4xH5ylv0QYFSlrWAe",
	  "id" : "4gmoQ4xH5ylv0QYFSlrWAe",
	  "images" : [ ],
	  "name" : "February Top 5 2015",
	  "owner" : {
		"display_name" : "Grant Spencer Meek",
		"external_urls" : {
		  "spotify" : "https://open.spotify.com/user/1162685727"
		},
		"href" : "https://api.spotify.com/v1/users/1162685727",
		"id" : "1162685727",
		"type" : "user",
		"uri" : "spotify:user:1162685727"
	  },
	  "primary_color" : null,
	  "public" : true,
	  "snapshot_id" : "MTQsYTczZWQzODNmZTQ1MzA2OTQyODRiNzljMTUzM2ExMDM4ZTU4MDRkYg==",
	  "tracks" : {
		"href" : "https://api.spotify.com/v1/playlists/4gmoQ4xH5ylv0QYFSlrWAe/tracks",
		"total" : 5
	  },
	  "type" : "playlist",
	  "uri" : "spotify:playlist:4gmoQ4xH5ylv0QYFSlrWAe"
	}, {
	  "collaborative" : false,
	  "description" : "",
	  "external_urls" : {
		"spotify" : "https://open.spotify.com/playlist/1RpF5836OAY8HVr3VxN2Lh"
	  },
	  "href" : "https://api.spotify.com/v1/playlists/1RpF5836OAY8HVr3VxN2Lh",
	  "id" : "1RpF5836OAY8HVr3VxN2Lh",
	  "images" : [ {
		"height" : 640,
		"url" : "https://i.scdn.co/image/a7f41ec7d863659f198e3365ed86737b783cc8f2",
		"width" : 640
	  } ],
	  "name" : "March Top 5 2015",
	  "owner" : {
		"display_name" : "Grant Spencer Meek",
		"external_urls" : {
		  "spotify" : "https://open.spotify.com/user/1162685727"
		},
		"href" : "https://api.spotify.com/v1/users/1162685727",
		"id" : "1162685727",
		"type" : "user",
		"uri" : "spotify:user:1162685727"
	  },
	  "primary_color" : null,
	  "public" : true,
	  "snapshot_id" : "OCxhOGYzZWU2MTE0MGRiZTdjY2Y0YWE5NzliMmJlYWYxYzQyYWY1Yjk1",
	  "tracks" : {
		"href" : "https://api.spotify.com/v1/playlists/1RpF5836OAY8HVr3VxN2Lh/tracks",
		"total" : 5
	  },
	  "type" : "playlist",
	  "uri" : "spotify:playlist:1RpF5836OAY8HVr3VxN2Lh"
	}, {
	  "collaborative" : false,
	  "description" : "",
	  "external_urls" : {
		"spotify" : "https://open.spotify.com/playlist/4iBcPb4xDYvLOc9i5am3Nx"
	  },
	  "href" : "https://api.spotify.com/v1/playlists/4iBcPb4xDYvLOc9i5am3Nx",
	  "id" : "4iBcPb4xDYvLOc9i5am3Nx",
	  "images" : [ {
		"height" : 640,
		"url" : "https://i.scdn.co/image/ab67616d0000b273fead41dab642ed772efca967",
		"width" : 640
	  } ],
	  "name" : "April Top 5 2015",
	  "owner" : {
		"display_name" : "Grant Spencer Meek",
		"external_urls" : {
		  "spotify" : "https://open.spotify.com/user/1162685727"
		},
		"href" : "https://api.spotify.com/v1/users/1162685727",
		"id" : "1162685727",
		"type" : "user",
		"uri" : "spotify:user:1162685727"
	  },
	  "primary_color" : null,
	  "public" : true,
	  "snapshot_id" : "Niw3MDBlNzZiNzAxNjc3NjhhNjM0YjM1NTRhNzM0NGEyZTYxMjhkMmIz",
	  "tracks" : {
		"href" : "https://api.spotify.com/v1/playlists/4iBcPb4xDYvLOc9i5am3Nx/tracks",
		"total" : 5
	  },
	  "type" : "playlist",
	  "uri" : "spotify:playlist:4iBcPb4xDYvLOc9i5am3Nx"
	}, {
	  "collaborative" : false,
	  "description" : "",
	  "external_urls" : {
		"spotify" : "https://open.spotify.com/playlist/0b9OH5ICRoVDoHBrVm4iiv"
	  },
	  "href" : "https://api.spotify.com/v1/playlists/0b9OH5ICRoVDoHBrVm4iiv",
	  "id" : "0b9OH5ICRoVDoHBrVm4iiv",
	  "images" : [ ],
	  "name" : "May Top 5 2015",
	  "owner" : {
		"display_name" : "Grant Spencer Meek",
		"external_urls" : {
		  "spotify" : "https://open.spotify.com/user/1162685727"
		},
		"href" : "https://api.spotify.com/v1/users/1162685727",
		"id" : "1162685727",
		"type" : "user",
		"uri" : "spotify:user:1162685727"
	  },
	  "primary_color" : null,
	  "public" : true,
	  "snapshot_id" : "MTYsZDFlYmE3OTZmMzdkYzQ3ZGIyY2Y4YzYzNmRkMTg4MWQ5ZmVlYzE2Yg==",
	  "tracks" : {
		"href" : "https://api.spotify.com/v1/playlists/0b9OH5ICRoVDoHBrVm4iiv/tracks",
		"total" : 5
	  },
	  "type" : "playlist",
	  "uri" : "spotify:playlist:0b9OH5ICRoVDoHBrVm4iiv"
	}, {
	  "collaborative" : false,
	  "description" : "",
	  "external_urls" : {
		"spotify" : "https://open.spotify.com/playlist/5MDLLl4G9YJ3T2Fyq8dfHI"
	  },
	  "href" : "https://api.spotify.com/v1/playlists/5MDLLl4G9YJ3T2Fyq8dfHI",
	  "id" : "5MDLLl4G9YJ3T2Fyq8dfHI",
	  "images" : [ {
		"height" : 640,
		"url" : "https://i.scdn.co/image/ab67616d0000b273ed17a14e09145f2986a42726",
		"width" : 640
	  } ],
	  "name" : "June Top 5 2015",
	  "owner" : {
		"display_name" : "Grant Spencer Meek",
		"external_urls" : {
		  "spotify" : "https://open.spotify.com/user/1162685727"
		},
		"href" : "https://api.spotify.com/v1/users/1162685727",
		"id" : "1162685727",
		"type" : "user",
		"uri" : "spotify:user:1162685727"
	  },
	  "primary_color" : null,
	  "public" : true,
	  "snapshot_id" : "MTUsNTUwYWQyOWQ4OWM5MDNjZjYwYjEwMGE0OTVlZWQ1NTNkNjc4NzY2ZQ==",
	  "tracks" : {
		"href" : "https://api.spotify.com/v1/playlists/5MDLLl4G9YJ3T2Fyq8dfHI/tracks",
		"total" : 6
	  },
	  "type" : "playlist",
	  "uri" : "spotify:playlist:5MDLLl4G9YJ3T2Fyq8dfHI"
	}, {
	  "collaborative" : false,
	  "description" : "",
	  "external_urls" : {
		"spotify" : "https://open.spotify.com/playlist/1AeWnCj0ZmgDXD177YMGIa"
	  },
	  "href" : "https://api.spotify.com/v1/playlists/1AeWnCj0ZmgDXD177YMGIa",
	  "id" : "1AeWnCj0ZmgDXD177YMGIa",
	  "images" : [ {
		"height" : 640,
		"url" : "https://mosaic.scdn.co/640/ab67616d0000b27360583f6410949ded4da37730ab67616d0000b27364bc2ac5d8bf7618f8c6a74aab67616d0000b273dc3d2efba66ff5cd3edfcb56ab67616d0000b273fc87f76096d278ed5cdc86b1",
		"width" : 640
	  }, {
		"height" : 300,
		"url" : "https://mosaic.scdn.co/300/ab67616d0000b27360583f6410949ded4da37730ab67616d0000b27364bc2ac5d8bf7618f8c6a74aab67616d0000b273dc3d2efba66ff5cd3edfcb56ab67616d0000b273fc87f76096d278ed5cdc86b1",
		"width" : 300
	  }, {
		"height" : 60,
		"url" : "https://mosaic.scdn.co/60/ab67616d0000b27360583f6410949ded4da37730ab67616d0000b27364bc2ac5d8bf7618f8c6a74aab67616d0000b273dc3d2efba66ff5cd3edfcb56ab67616d0000b273fc87f76096d278ed5cdc86b1",
		"width" : 60
	  } ],
	  "name" : "July Top 5 2015",
	  "owner" : {
		"display_name" : "Grant Spencer Meek",
		"external_urls" : {
		  "spotify" : "https://open.spotify.com/user/1162685727"
		},
		"href" : "https://api.spotify.com/v1/users/1162685727",
		"id" : "1162685727",
		"type" : "user",
		"uri" : "spotify:user:1162685727"
	  },
	  "primary_color" : null,
	  "public" : true,
	  "snapshot_id" : "OSxmMDI5MTc3ZDU1MzIzYmIzY2E0ZjVlZmVmMDE0M2U2MjMxYWVmN2I1",
	  "tracks" : {
		"href" : "https://api.spotify.com/v1/playlists/1AeWnCj0ZmgDXD177YMGIa/tracks",
		"total" : 5
	  },
	  "type" : "playlist",
	  "uri" : "spotify:playlist:1AeWnCj0ZmgDXD177YMGIa"
	}, {
	  "collaborative" : false,
	  "description" : "",
	  "external_urls" : {
		"spotify" : "https://open.spotify.com/playlist/1eIQ9yNAx269vt94p1MZcr"
	  },
	  "href" : "https://api.spotify.com/v1/playlists/1eIQ9yNAx269vt94p1MZcr",
	  "id" : "1eIQ9yNAx269vt94p1MZcr",
	  "images" : [ {
		"height" : 640,
		"url" : "https://mosaic.scdn.co/640/249248e704f34007898ef0465f3c2b1c521d4347ab67616d0000b27301a6faf91e207748e8e32e0aab67616d0000b273a7a6a65f1ad8a4e89efc0d68d031ce5a8141bb9a55a7af9fc321a286671c839a",
		"width" : 640
	  }, {
		"height" : 300,
		"url" : "https://mosaic.scdn.co/300/249248e704f34007898ef0465f3c2b1c521d4347ab67616d0000b27301a6faf91e207748e8e32e0aab67616d0000b273a7a6a65f1ad8a4e89efc0d68d031ce5a8141bb9a55a7af9fc321a286671c839a",
		"width" : 300
	  }, {
		"height" : 60,
		"url" : "https://mosaic.scdn.co/60/249248e704f34007898ef0465f3c2b1c521d4347ab67616d0000b27301a6faf91e207748e8e32e0aab67616d0000b273a7a6a65f1ad8a4e89efc0d68d031ce5a8141bb9a55a7af9fc321a286671c839a",
		"width" : 60
	  } ],
	  "name" : "August Top 5 2015",
	  "owner" : {
		"display_name" : "Grant Spencer Meek",
		"external_urls" : {
		  "spotify" : "https://open.spotify.com/user/1162685727"
		},
		"href" : "https://api.spotify.com/v1/users/1162685727",
		"id" : "1162685727",
		"type" : "user",
		"uri" : "spotify:user:1162685727"
	  },
	  "primary_color" : null,
	  "public" : true,
	  "snapshot_id" : "OCw4YWEzOTdhYjEzMjdkODFlNjZhYjU4YzVlNzI4MmI3YWQzMWEyYjQ1",
	  "tracks" : {
		"href" : "https://api.spotify.com/v1/playlists/1eIQ9yNAx269vt94p1MZcr/tracks",
		"total" : 5
	  },
	  "type" : "playlist",
	  "uri" : "spotify:playlist:1eIQ9yNAx269vt94p1MZcr"
	}, {
	  "collaborative" : false,
	  "description" : "",
	  "external_urls" : {
		"spotify" : "https://open.spotify.com/playlist/0egh01ABOrCIqaxS0AVLRf"
	  },
	  "href" : "https://api.spotify.com/v1/playlists/0egh01ABOrCIqaxS0AVLRf",
	  "id" : "0egh01ABOrCIqaxS0AVLRf",
	  "images" : [ {
		"height" : 640,
		"url" : "https://mosaic.scdn.co/640/ab67616d0000b27332152834642e60b803bf2353ab67616d0000b27387d991ff176caafdeff54a2bab67616d0000b273c052567bd504cf4de9e899e0ab67616d0000b273fc28f848a959a286c2d91ffa",
		"width" : 640
	  }, {
		"height" : 300,
		"url" : "https://mosaic.scdn.co/300/ab67616d0000b27332152834642e60b803bf2353ab67616d0000b27387d991ff176caafdeff54a2bab67616d0000b273c052567bd504cf4de9e899e0ab67616d0000b273fc28f848a959a286c2d91ffa",
		"width" : 300
	  }, {
		"height" : 60,
		"url" : "https://mosaic.scdn.co/60/ab67616d0000b27332152834642e60b803bf2353ab67616d0000b27387d991ff176caafdeff54a2bab67616d0000b273c052567bd504cf4de9e899e0ab67616d0000b273fc28f848a959a286c2d91ffa",
		"width" : 60
	  } ],
	  "name" : "September Top 5 2015",
	  "owner" : {
		"display_name" : "Grant Spencer Meek",
		"external_urls" : {
		  "spotify" : "https://open.spotify.com/user/1162685727"
		},
		"href" : "https://api.spotify.com/v1/users/1162685727",
		"id" : "1162685727",
		"type" : "user",
		"uri" : "spotify:user:1162685727"
	  },
	  "primary_color" : null,
	  "public" : true,
	  "snapshot_id" : "MTAsOTRjNmMwNDM1NWNjYmRhZTQ3MWU0NWNlYzhmMDMxNzY1OTcwZWQ5ZQ==",
	  "tracks" : {
		"href" : "https://api.spotify.com/v1/playlists/0egh01ABOrCIqaxS0AVLRf/tracks",
		"total" : 5
	  },
	  "type" : "playlist",
	  "uri" : "spotify:playlist:0egh01ABOrCIqaxS0AVLRf"
	} ],
	"limit" : 20,
	"next" : "https://api.spotify.com/v1/users/1162685727/playlists?offset=60&limit=20",
	"offset" : 40,
	"previous" : "https://api.spotify.com/v1/users/1162685727/playlists?offset=20&limit=20",
	"total" : 280
  }